{
  "project_info": {
    "project_number": "259211770826",
    "project_id": "zpcdroid-328a4",
    "storage_bucket": "zpcdroid-328a4.appspot.com"
  },
  "client": [
    {
      "client_info": {
        "mobilesdk_app_id": "1:259211770826:android:925de5453dadbebed2ed33",
        "android_client_info": {
          "package_name": "com.al.zpcdroid"
        }
      },
      "oauth_client": [
        {
          "client_id": "259211770826-k9jdutb1td74edgcmidcvqv70eeu008u.apps.googleusercontent.com",
          "client_type": 3
        }
      ],
      "api_key": [
        {
          "current_key": "AIzaSyDosB0K8PQTqqDocAM5A64ihzUOYpArooA"
        }
      ],
      "services": {
        "appinvite_service": {
          "other_platform_oauth_client": [
            {
              "client_id": "259211770826-k9jdutb1td74edgcmidcvqv70eeu008u.apps.googleusercontent.com",
              "client_type": 3
            }
          ]
        }
      }
    }
  ],
  "configuration_version": "1"
}